simulation/qsim/skeleton.msim.vcd
$comment
	File created using the following command:
		vcd file skeleton.msim.vcd -direction
$end
$date
	Tue Oct 24 18:40:08 2023
$end
$version
	ModelSim Version 10.5b
$end
$timescale
	1ps
$end

$scope module clock_divider_by2_vlg_vec_tst $end
$var reg 1 ! clk $end
$var reg 1 " rst $end
$var wire 1 # out_clk $end

$scope module i1 $end
$var wire 1 $ gnd $end
$var wire 1 % vcc $end
$var wire 1 & unknown $end
$var tri1 1 ' devclrn $end
$var tri1 1 ( devpor $end
$var tri1 1 ) devoe $end
$var wire 1 * out_clk~output_o $end
$var wire 1 + clk~input_o $end
$var wire 1 , rst~input_o $end
$var wire 1 - out_clk~0_combout $end
$var wire 1 . out_clk~reg0_q $end
$upscope $end
$upscope $end
$enddefinitions $end
#0
$dumpvars
0!
1"
x#
0$
1%
x&
1'
1(
1)
x*
0+
1,
x-
0.
$end
#2890
0-
#3324
0*
0#
#10000
1!
#10660
1+
#20000
0!
#20766
0+
#30000
1!
#30660
1+
#40000
0!
#40766
0+
#50000
1!
#50660
1+
#60000
0"
0!
#60766
0+
0,
#63923
1-
#70000
1!
#70660
1+
#72113
1.
#72542
0-
#75425
1*
1#
#80000
0!
#80766
0+
#90000
1!
#90660
1+
#92113
0.
#92522
1-
#95437
0*
0#
#100000
0!
#100766
0+
#110000
1!
#110660
1+
#112113
1.
#112542
0-
#115425
1*
1#
#120000
0!
#120766
0+
#130000
1!
#130660
1+
#132113
0.
#132522
1-
#135437
0*
0#
#140000
0!
#140766
0+
#150000
1!
#150660
1+
#152113
1.
#152542
0-
#155425
1*
1#
#160000
0!
#160766
0+
#170000
1!
#170660
1+
#172113
0.
#172522
1-
#175437
0*
0#
#180000
0!
#180766
0+
#190000
1!
#190660
1+
#192113
1.
#192542
0-
#195425
1*
1#
#200000
0!
#200766
0+
#210000
1!
#210660
1+
#212113
0.
#212522
1-
#215437
0*
0#
#220000
0!
#220766
0+
#230000
1!
#230660
1+
#232113
1.
#232542
0-
#235425
1*
1#
#240000
0!
#240766
0+
#250000
1!
#250660
1+
#252113
0.
#252522
1-
#255437
0*
0#
#260000
0!
#260766
0+
#270000
1!
#270660
1+
#272113
1.
#272542
0-
#275425
1*
1#
#280000
0!
#280766
0+
#290000
1!
#290660
1+
#292113
0.
#292522
1-
#295437
0*
0#
#300000
0!
#300766
0+
#310000
1!
#310660
1+
#312113
1.
#312542
0-
#315425
1*
1#
#320000
0!
#320766
0+
#330000
1!
#330660
1+
#332113
0.
#332522
1-
#335437
0*
0#
#340000
0!
#340766
0+
#350000
1!
#350660
1+
#352113
1.
#352542
0-
#355425
1*
1#
#360000
0!
#360766
0+
#370000
1!
#370660
1+
#372113
0.
#372522
1-
#375437
0*
0#
#380000
0!
#380766
0+
#390000
1!
#390660
1+
#392113
1.
#392542
0-
#395425
1*
1#
#400000
0!
#400766
0+
#410000
1!
#410660
1+
#412113
0.
#412522
1-
#415437
0*
0#
#420000
0!
#420766
0+
#430000
1!
#430660
1+
#432113
1.
#432542
0-
#435425
1*
1#
#440000
0!
#440766
0+
#450000
1!
#450660
1+
#452113
0.
#452522
1-
#455437
0*
0#
#460000
0!
#460766
0+
#470000
1!
#470660
1+
#472113
1.
#472542
0-
#475425
1*
1#
#480000
0!
#480766
0+
#490000
1!
#490660
1+
#492113
0.
#492522
1-
#495437
0*
0#
#500000
0!
#500766
0+
#510000
1!
#510660
1+
#512113
1.
#512542
0-
#515425
1*
1#
#520000
0!
#520766
0+
#530000
1!
#530660
1+
#532113
0.
#532522
1-
#535437
0*
0#
#540000
0!
#540766
0+
#550000
1!
#550660
1+
#552113
1.
#552542
0-
#555425
1*
1#
#560000
0!
#560766
0+
#570000
1!
#570660
1+
#572113
0.
#572522
1-
#575437
0*
0#
#580000
0!
#580766
0+
#590000
1!
#590660
1+
#592113
1.
#592542
0-
#595425
1*
1#
#600000
0!
#600766
0+
#610000
1!
#610660
1+
#612113
0.
#612522
1-
#615437
0*
0#
#620000
0!
#620766
0+
#630000
1!
#630660
1+
#632113
1.
#632542
0-
#635425
1*
1#
#640000
0!
#640766
0+
#650000
1!
#650660
1+
#652113
0.
#652522
1-
#655437
0*
0#
#660000
0!
#660766
0+
#670000
1!
#670660
1+
#672113
1.
#672542
0-
#675425
1*
1#
#680000
0!
#680766
0+
#690000
1!
#690660
1+
#692113
0.
#692522
1-
#695437
0*
0#
#700000
0!
#700766
0+
#710000
1!
#710660
1+
#712113
1.
#712542
0-
#715425
1*
1#
#720000
0!
#720766
0+
#730000
1!
#730660
1+
#732113
0.
#732522
1-
#735437
0*
0#
#740000
0!
#740766
0+
#750000
1!
#750660
1+
#752113
1.
#752542
0-
#755425
1*
1#
#760000
0!
#760766
0+
#770000
1!
#770660
1+
#772113
0.
#772522
1-
#775437
0*
0#
#780000
0!
#780766
0+
#790000
1!
#790660
1+
#792113
1.
#792542
0-
#795425
1*
1#
#800000
0!
#800766
0+
#810000
1!
#810660
1+
#812113
0.
#812522
1-
#815437
0*
0#
#820000
0!
#820766
0+
#830000
1!
#830660
1+
#832113
1.
#832542
0-
#835425
1*
1#
#840000
0!
#840766
0+
#850000
1!
#850660
1+
#852113
0.
#852522
1-
#855437
0*
0#
#860000
0!
#860766
0+
#870000
1!
#870660
1+
#872113
1.
#872542
0-
#875425
1*
1#
#880000
0!
#880766
0+
#890000
1!
#890660
1+
#892113
0.
#892522
1-
#895437
0*
0#
#900000
0!
#900766
0+
#910000
1!
#910660
1+
#912113
1.
#912542
0-
#915425
1*
1#
#920000
0!
#920766
0+
#930000
1!
#930660
1+
#932113
0.
#932522
1-
#935437
0*
0#
#940000
0!
#940766
0+
#950000
1!
#950660
1+
#952113
1.
#952542
0-
#955425
1*
1#
#960000
0!
#960766
0+
#970000
1!
#970660
1+
#972113
0.
#972522
1-
#975437
0*
0#
#980000
0!
#980766
0+
#990000
1!
#990660
1+
#992113
1.
#992542
0-
#995425
1*
1#
